…
p_mesh_qualifiers
# ggsave(here("R_data/final", "plot_mesh_qualifiers.png"),
#        width = 8,
#        height = 6)
```

```{r, eval=FALSE}
MeSH_qualifiers_counts
# A tibble: 36 × 2
#    MeSH_qualifiers        n
#    <fct>              <int>
#  1 toxicity             168
#  2 analysis             114
#  3 adverse effects       73
#  4 drug effects          63
#  5 chemically induced    52
#  6 epidemiology          46
#  7 metabolism            42
#  8 chemistry             30
#  9 etiology              17
# 10 blood                 14
# … with 26 more rows
# ℹ Use `print(n = ...)` to see more rows
```
…
